<?xml version="1.0" standalone="no"?>
<!DOCTYPE svg PUBLIC "-//W3C//DTD SVG 1.1//EN"
"http://www.w3.org/Graphics/SVG/1.1/DTD/svg11.dtd">
<!-- Creator: fig2dev Version 3.2 Patchlevel 5e -->
<!-- CreationDate: Mon Sep 22 21:56:33 2014 -->
<!-- Magnification: 1.050 -->
<svg	xmlns="http://www.w3.org/2000/svg"
	xmlns:xlink="http://www.w3.org/1999/xlink"
	width="7.9in" height="3.2in"
	viewBox="2222 994 9489 3840">
<g style="stroke-width:.025in; fill:none">
<!-- Circle -->
<circle cx="2692" cy="2881" r="446"
 style="stroke:#000000;stroke-width:32;"/>
<!-- Circle -->
<circle cx="4866" cy="4299" r="446"
 style="stroke:#000000;stroke-width:32;"/>
<!-- Circle -->
<circle cx="5622" cy="1464" r="446"
 style="stroke:#000000;stroke-width:32;"/>
<!-- Circle -->
<circle cx="9023" cy="2362" r="446"
 style="stroke:#000000;stroke-width:32;"/>
<!-- Circle -->
<circle cx="11241" cy="4234" r="446"
 style="stroke:#000000;stroke-width:32;"/>
<!-- Line -->
<polyline points="3023,3212
4426,4100
" style="stroke:#000000;stroke-width:8;
stroke-linejoin:miter; stroke-linecap:butt;
"/>
<!-- Arrowhead on XXXpoint 3023 3212 - 4453 4118-->
<polyline points="4130 4006
4425 4100
4214 3874
" style="stroke:#000000;stroke-width:16;stroke-miterlimit:8;
"/>
<!-- Line -->
<polyline points="3023,2598
5181,1659
" style="stroke:#000000;stroke-width:8;
stroke-linejoin:miter; stroke-linecap:butt;
"/>
<!-- Arrowhead on XXXpoint 3023 2598 - 5210 1647-->
<polyline points="4936 1851
5180 1660
4873 1707
" style="stroke:#000000;stroke-width:16;stroke-miterlimit:8;
"/>
<!-- Line -->
<polyline points="6094,1606
8581,2216
" style="stroke:#000000;stroke-width:8;
stroke-linejoin:miter; stroke-linecap:butt;
"/>
<!-- Arrowhead on XXXpoint 6094 1606 - 8613 2223-->
<polyline points="8270 2219
8580 2215
8308 2067
" style="stroke:#000000;stroke-width:16;stroke-miterlimit:8;
"/>
<!-- Line -->
<polyline points="5291,4440
10802,4299
" style="stroke:#000000;stroke-width:8;
stroke-linejoin:miter; stroke-linecap:butt;
"/>
<!-- Arrowhead on XXXpoint 5291 4440 - 10833 4298-->
<polyline points="10502 4385
10800 4299
10498 4227
" style="stroke:#000000;stroke-width:16;stroke-miterlimit:8;
"/>
<!-- Line -->
<polyline points="5244,4062
8677,2650
" style="stroke:#000000;stroke-width:8;
stroke-linejoin:miter; stroke-linecap:butt;
"/>
<!-- Arrowhead on XXXpoint 5244 4062 - 8706 2639-->
<polyline points="8428 2837
8676 2651
8368 2692
" style="stroke:#000000;stroke-width:16;stroke-miterlimit:8;
"/>
<!-- Line -->
<polyline points="3165,2929
8581,2410
" style="stroke:#000000;stroke-width:8;
stroke-linejoin:miter; stroke-linecap:butt;
"/>
<!-- Arrowhead on XXXpoint 3165 2929 - 8613 2407-->
<polyline points="8289 2516
8580 2410
8275 2360
" style="stroke:#000000;stroke-width:16;stroke-miterlimit:8;
"/>
<!-- Line -->
<polyline points="9401,2645
10899,3909
" style="stroke:#000000;stroke-width:8;
stroke-linejoin:miter; stroke-linecap:butt;
"/>
<!-- Arrowhead on XXXpoint 9401 2645 - 10924 3930-->
<polyline points="10619 3776
10899 3909
10721 3655
" style="stroke:#000000;stroke-width:16;stroke-miterlimit:8;
"/>
<!-- Text -->
<text xml:space="preserve" x="2692" y="3070" fill="#000000"  font-family="Times" font-style="normal" font-weight="normal" font-size="278" text-anchor="middle">1</text>
<!-- Text -->
<text xml:space="preserve" x="5622" y="1559" fill="#000000"  font-family="Times" font-style="normal" font-weight="normal" font-size="278" text-anchor="middle">2</text>
<!-- Text -->
<text xml:space="preserve" x="11244" y="4393" fill="#000000"  font-family="Times" font-style="normal" font-weight="normal" font-size="278" text-anchor="middle">5</text>
<!-- Text -->
<text xml:space="preserve" x="4866" y="4440" fill="#000000"  font-family="Times" font-style="normal" font-weight="normal" font-size="278" text-anchor="middle">4</text>
<!-- Text -->
<text xml:space="preserve" x="9023" y="2503" fill="#000000"  font-family="Times" font-style="normal" font-weight="normal" font-size="278" text-anchor="middle">3</text>
<!-- Text -->
<text xml:space="preserve" x="3685" y="2078" fill="#000000"  font-family="Times" font-style="normal" font-weight="normal" font-size="278" text-anchor="middle">3</text>
<!-- Text -->
<text xml:space="preserve" x="5291" y="3118" fill="#000000"  font-family="Times" font-style="normal" font-weight="normal" font-size="278" text-anchor="middle">2</text>
<!-- Text -->
<text xml:space="preserve" x="7322" y="1748" fill="#000000"  font-family="Times" font-style="normal" font-weight="normal" font-size="278" text-anchor="middle">5</text>
<!-- Text -->
<text xml:space="preserve" x="8314" y="4818" fill="#000000"  font-family="Times" font-style="normal" font-weight="normal" font-size="278" text-anchor="middle">6</text>
<!-- Text -->
<text xml:space="preserve" x="10251" y="3070" fill="#000000"  font-family="Times" font-style="normal" font-weight="normal" font-size="278" text-anchor="middle">4</text>
<!-- Text -->
<text xml:space="preserve" x="3212" y="3874" fill="#000000"  font-family="Times" font-style="normal" font-weight="normal" font-size="278" text-anchor="middle">6</text>
<!-- Text -->
<text xml:space="preserve" x="7133" y="3685" fill="#000000"  font-family="Times" font-style="normal" font-weight="normal" font-size="278" text-anchor="middle">1.5</text>
</g>
</svg>
